…
    ## Parsed with column specification:
    ## cols(
    ##   season = col_double(),
    ##   episode = col_double(),
    ##   title = col_character(),
    ##   imdb_rating = col_double(),
    ##   total_votes = col_double(),
    ##   air_date = col_date(format = "")
    ## )

``` r
schrute::theoffice
```

    ## # A tibble: 55,130 x 12
    ##    index season episode episode_name director writer character text 
    ##    <int>  <int>   <int> <chr>        <chr>    <chr>  <chr>     <chr>
    ##  1     1      1       1 Pilot        Ken Kwa~ Ricky~ Michael   All ~
    ##  2     2      1       1 Pilot        Ken Kwa~ Ricky~ Jim       Oh, ~
    ##  3     3      1       1 Pilot        Ken Kwa~ Ricky~ Michael   So y~
    ##  4     4      1       1 Pilot        Ken Kwa~ Ricky~ Jim       Actu~
    ##  5     5      1       1 Pilot        Ken Kwa~ Ricky~ Michael   All ~
    ##  6     6      1       1 Pilot        Ken Kwa~ Ricky~ Michael   Yes,~
    ##  7     7      1       1 Pilot        Ken Kwa~ Ricky~ Michael   I've~
    ##  8     8      1       1 Pilot        Ken Kwa~ Ricky~ Pam       Well~
    ##  9     9      1       1 Pilot        Ken Kwa~ Ricky~ Michael   If y~
    ## 10    10      1       1 Pilot        Ken Kwa~ Ricky~ Pam       What?
    ## # ... with 55,120 more rows, and 4 more variables: text_w_direction <chr>,
    ## #   imdb_rating <dbl>, total_votes <int>, air_date <fct>
…
``` r
wf <- workflow() %>% 
    add_recipe(office_rec)

lasso_fit <- wf %>%
    add_model(lasso_spec) %>% 
    fit(data = office_train)

lasso_fit %>% 
    pull_workflow_fit() %>% 
    tidy()
```

    ## # A tibble: 1,614 x 5
    ##    term         step estimate lambda dev.ratio
    ##    <chr>       <dbl>    <dbl>  <dbl>     <dbl>
    ##  1 (Intercept)     1  8.34     0.180    0     
    ##  2 (Intercept)     2  8.34     0.164    0.0233
    ##  3 michael         2  0.0161   0.164    0.0233
    ##  4 (Intercept)     3  8.34     0.149    0.0478
    ##  5 angela          3  0.00427  0.149    0.0478
    ##  6 michael         3  0.0305   0.149    0.0478
    ##  7 (Intercept)     4  8.34     0.136    0.0783
    ##  8 angela          4  0.0169   0.136    0.0783
    ##  9 michael         4  0.0431   0.136    0.0783
    ## 10 (Intercept)     5  8.34     0.124    0.104 
    ## # ... with 1,604 more rows
…
